%YAML 1.1
%TAG !u! tag:unity3d.com,2011:
--- !u!114 &11400000
MonoBehaviour:
  m_ObjectHideFlags: 0
  m_CorrespondingSourceObject: {fileID: 0}
  m_PrefabInstance: {fileID: 0}
  m_PrefabAsset: {fileID: 0}
  m_GameObject: {fileID: 0}
  m_Enabled: 1
  m_EditorHideFlags: 0
  m_Script: {fileID: 11500000, guid: 3202b84acec723f498ccf3cefd715597, type: 3}
  m_Name: Xbox 360 Controller
  m_EditorClassIdentifier: 
  controllerName: Xbox 360 Controller
  guid: d74a350e-fe8b-4e9e-bbcd-efff16d34115
  controllerGlyphs:
  - elementName: Left Stick X
    elementID: 0
    glyphImage: {fileID: 21300012, guid: db155c43b98ef6247ad563f367e850a9, type: 3}
  - elementName: Left Stick Y
    elementID: 1
    glyphImage: {fileID: 21300012, guid: db155c43b98ef6247ad563f367e850a9, type: 3}
  - elementName: Right Stick X
    elementID: 2
    glyphImage: {fileID: 21300014, guid: db155c43b98ef6247ad563f367e850a9, type: 3}
  - elementName: Right Stick Y
    elementID: 3
    glyphImage: {fileID: 21300014, guid: db155c43b98ef6247ad563f367e850a9, type: 3}
  - elementName: Left Trigger
    elementID: 4
    glyphImage: {fileID: 21300014, guid: a4c4b71fdbbfda6459e46cedec88809a, type: 3}
  - elementName: Right Trigger
    elementID: 5
    glyphImage: {fileID: 21300016, guid: a4c4b71fdbbfda6459e46cedec88809a, type: 3}
  - elementName: A
    elementID: 6
    glyphImage: {fileID: 21300004, guid: db155c43b98ef6247ad563f367e850a9, type: 3}
  - elementName: B
    elementID: 7
    glyphImage: {fileID: 21300006, guid: db155c43b98ef6247ad563f367e850a9, type: 3}
  - elementName: X
    elementID: 8
    glyphImage: {fileID: 21300008, guid: db155c43b98ef6247ad563f367e850a9, type: 3}
  - elementName: Y
    elementID: 9
    glyphImage: {fileID: 21300010, guid: db155c43b98ef6247ad563f367e850a9, type: 3}
  - elementName: Left Shoulder
    elementID: 10
    glyphImage: {fileID: 21300004, guid: a4c4b71fdbbfda6459e46cedec88809a, type: 3}
  - elementName: Right Shoulder
    elementID: 11
    glyphImage: {fileID: 21300006, guid: a4c4b71fdbbfda6459e46cedec88809a, type: 3}
  - elementName: Back
    elementID: 12
    glyphImage: {fileID: 21300002, guid: db155c43b98ef6247ad563f367e850a9, type: 3}
  - elementName: Start
    elementID: 13
    glyphImage: {fileID: 21300000, guid: db155c43b98ef6247ad563f367e850a9, type: 3}
  - elementName: Guide
    elementID: 14
    glyphImage: {fileID: 0}
  - elementName: Left Stick Button
    elementID: 15
    glyphImage: {fileID: 21300012, guid: db155c43b98ef6247ad563f367e850a9, type: 3}
  - elementName: Right Stick Button
    elementID: 16
    glyphImage: {fileID: 21300014, guid: db155c43b98ef6247ad563f367e850a9, type: 3}
  - elementName: D-Pad Up
    elementID: 17
    glyphImage: {fileID: 21300028, guid: a4c4b71fdbbfda6459e46cedec88809a, type: 3}
  - elementName: D-Pad Right
    elementID: 18
    glyphImage: {fileID: 21300030, guid: a4c4b71fdbbfda6459e46cedec88809a, type: 3}
  - elementName: D-Pad Down
    elementID: 19
    glyphImage: {fileID: 21300034, guid: a4c4b71fdbbfda6459e46cedec88809a, type: 3}
  - elementName: D-Pad Left
    elementID: 20
    glyphImage: {fileID: 21300032, guid: a4c4b71fdbbfda6459e46cedec88809a, type: 3}
  - elementName: Left Stick
    elementID: 21
    glyphImage: {fileID: 21300012, guid: db155c43b98ef6247ad563f367e850a9, type: 3}
  - elementName: Right Stick
    elementID: 22
    glyphImage: {fileID: 21300014, guid: db155c43b98ef6247ad563f367e850a9, type: 3}
