%YAML 1.1
%TAG !u! tag:unity3d.com,2011:
--- !u!114 &11400000
MonoBehaviour:
  m_ObjectHideFlags: 0
  m_CorrespondingSourceObject: {fileID: 0}
  m_PrefabInstance: {fileID: 0}
  m_PrefabAsset: {fileID: 0}
  m_GameObject: {fileID: 0}
  m_Enabled: 1
  m_EditorHideFlags: 0
  m_Script: {fileID: 11500000, guid: c7d70af0c6ad3f34896175e8d189d792, type: 3}
  m_Name: DansgaardSad
  m_EditorClassIdentifier: 
  actors: 0000000001000000
  lines:
  - speakingCharacter: 1
    emotion: 1
    dialogue: Ah, yes you must be our guest. Please make yourself comfortable.
  - speakingCharacter: 1
    emotion: 0
    dialogue: I apologize, we don't have much in entertainment- we don't get many
      visitors, being so remote. In fact I myself am running out of reading material.
  - speakingCharacter: 1
    emotion: 2
    dialogue: At home I have an extensive library of books to pass the time but here
      when I'm not studying ice core samples I end up just staring out at the snow.
  - speakingCharacter: 1
    emotion: 2
    dialogue: It reminds me of a story of a man trapped in a grim prison off the coast
      of France. Yes- like the Count of Monte Cristo- I wish I had brought that book
      with me.
  - speakingCharacter: 1
    emotion: 0
    dialogue: "Well, at any rate, feel free to explore the lab and if you are hungry
      eat any of the food in the mess.\r"
