%YAML 1.1
%TAG !u! tag:unity3d.com,2011:
--- !u!114 &11400000
MonoBehaviour:
  m_ObjectHideFlags: 0
  m_CorrespondingSourceObject: {fileID: 0}
  m_PrefabInstance: {fileID: 0}
  m_PrefabAsset: {fileID: 0}
  m_GameObject: {fileID: 0}
  m_Enabled: 1
  m_EditorHideFlags: 0
  m_Script: {fileID: 11500000, guid: c7d70af0c6ad3f34896175e8d189d792, type: 3}
  m_Name: EndCutScene
  m_EditorClassIdentifier: 
  actors: 0000000001000000020000000400000003000000
  lines:
  - speakingCharacter: 2
    emotion: 1
    dialogue: '...and then- a huge troll jumps out of nowhere! Roll for initiative'
  - speakingCharacter: 3
    emotion: 0
    dialogue: I rage.
  - speakingCharacter: 1
    emotion: 0
    dialogue: "Drat, I was hoping we could negotiate\r\n"
  - speakingCharacter: 4
    emotion: 1
    dialogue: "Does it notice me? I want to do a sneak attack\r"
  - speakingCharacter: 0
    emotion: 0
    dialogue: '*rolls a 20*'
  - speakingCharacter: 1
    emotion: 1
    dialogue: Look- our new friend got another natural 20! You are really getting
      the hang of this
  - speakingCharacter: 2
    emotion: 1
    dialogue: Yeah you sure know how to play a sorcerer- its like you know magic for
      real or something
  - speakingCharacter: 0
    emotion: 0
    dialogue: '*winks*'
  - speakingCharacter: 4
    emotion: 1
    dialogue: This is so much fun. I forgot how much fun it is to play with all of
      you
  - speakingCharacter: 3
    emotion: 1
    dialogue: Yeah, I don't usually say stuff like this but it is hard to keep your
      spirits up in the dead of winter but you all keep me happy
  - speakingCharacter: 1
    emotion: 1
    dialogue: "Likewise, it is a pleasure serving the planet with all of you.\r\n"
  - speakingCharacter: 2
    emotion: 1
    dialogue: "Best internship ever!\r\n"
  - speakingCharacter: 0
    emotion: 0
    dialogue: '*rolls dice*'
  - speakingCharacter: 2
    emotion: 0
    dialogue: Oh are you casting a spell? Looks like that's a success
  - speakingCharacter: 2
    emotion: 0
    dialogue: '...'
  - speakingCharacter: 2
    emotion: 1
    dialogue: This is SO going in my thesis!
