%YAML 1.1
%TAG !u! tag:unity3d.com,2011:
--- !u!114 &11400000
MonoBehaviour:
  m_ObjectHideFlags: 0
  m_CorrespondingSourceObject: {fileID: 0}
  m_PrefabInstance: {fileID: 0}
  m_PrefabAsset: {fileID: 0}
  m_GameObject: {fileID: 0}
  m_Enabled: 1
  m_EditorHideFlags: 0
  m_Script: {fileID: 11500000, guid: c7d70af0c6ad3f34896175e8d189d792, type: 3}
  m_Name: SteveSad
  m_EditorClassIdentifier: 
  actors: 0000000003000000
  lines:
  - speakingCharacter: 3
    emotion: 0
    dialogue: Uh....
  - speakingCharacter: 3
    emotion: 0
    dialogue: Welcome to the lab.
  - speakingCharacter: 3
    emotion: 0
    dialogue: '...I don''t really do chit-chat.'
  - speakingCharacter: 0
    emotion: 1
    dialogue: '...'
  - speakingCharacter: 3
    emotion: 0
    dialogue: So....yep. Gonna go back to work now.
  - speakingCharacter: 0
    emotion: 1
    dialogue: '...'
  - speakingCharacter: 3
    emotion: 0
    dialogue: '...'
  - speakingCharacter: 0
    emotion: 1
    dialogue: '...'
  - speakingCharacter: 3
    emotion: 2
    dialogue: '...'
  - speakingCharacter: 3
    emotion: 2
    dialogue: I MISS MY DOG!
  - speakingCharacter: 0
    emotion: 2
    dialogue: '...'
  - speakingCharacter: 3
    emotion: 2
    dialogue: He was a chocolate lab, so cute and fluffy and lovable and I just want
      to hug him and...
  - speakingCharacter: 3
    emotion: 2
    dialogue: Oh fiddlesticks. I don't know why I'm telling you this- I haven't talked
      to anybody about this and now I'm telling some stranger.
  - speakingCharacter: 3
    emotion: 0
    dialogue: I'm going back to work. Leave me alone.
