%YAML 1.1
%TAG !u! tag:unity3d.com,2011:
--- !u!114 &11400000
MonoBehaviour:
  m_ObjectHideFlags: 0
  m_CorrespondingSourceObject: {fileID: 0}
  m_PrefabInstance: {fileID: 0}
  m_PrefabAsset: {fileID: 0}
  m_GameObject: {fileID: 0}
  m_Enabled: 1
  m_EditorHideFlags: 0
  m_Script: {fileID: 11500000, guid: c7d70af0c6ad3f34896175e8d189d792, type: 3}
  m_Name: ZeldaSad
  m_EditorClassIdentifier: 
  actors: 0000000002000000
  lines:
  - speakingCharacter: 2
    emotion: 1
    dialogue: Greetings traveler! Hail and well met!
  - speakingCharacter: 2
    emotion: 0
    dialogue: and...um...roll for initiative?
  - speakingCharacter: 2
    emotion: 2
    dialogue: "Sorry.. I'm trying to get back into character. I DM our weekly Dungeons
      and Dragons game but I have been so homesick lately I can\u2019t think of any
      good scenarios."
  - speakingCharacter: 2
    emotion: 2
    dialogue: "I thought this internship would be really fun but it is so dark and
      cold it's really hard to get excited about the cool climate science we\u2019re
      doing."
  - speakingCharacter: 2
    emotion: 2
    dialogue: And now on top of everything I lost my grandma's 24 karrot gold pendant.
      She gave it to me when I left for college and it always reminds me of home.
  - speakingCharacter: 2
    emotion: 0
    dialogue: "All well. I guess sometimes you roll a critical fail on your search
      check!\r"
